…
    ## Warning: package 'report' was built under R version 4.0.5

``` r
library(ggplot2)

rankings <- tuesdata$ultra_rankings

tuesdata$ultra_rankings
```

    ## # A tibble: 137,803 x 8
    ##    race_year_id  rank runner     time     age gender nationality time_in_seconds
    ##           <dbl> <dbl> <chr>      <chr>  <dbl> <chr>  <chr>                 <dbl>
    ##  1        68140     1 VERHEUL J~ 26H 3~    30 M      GBR                   95725
    ##  2        68140     2 MOULDING ~ 27H 0~    43 M      GBR                   97229
    ##  3        68140     3 RICHARDSO~ 28H 4~    38 M      GBR                  103747
    ##  4        68140     4 DYSON Fio~ 30H 5~    55 W      GBR                  111217
    ##  5        68140     5 FRONTERAS~ 32H 4~    48 W      GBR                  117981
    ##  6        68140     6 THOMAS Le~ 32H 4~    31 M      GBR                  118000
    ##  7        68140     7 SHORT Deb~ 33H 3~    55 W      GBR                  120601
    ##  8        68140     8 CROSSLEY ~ 33H 3~    40 W      GBR                  120803
    ##  9        68140     9 BUTCHER K~ 34H 5~    47 M      GBR                  125656
    ## 10        68140    10 Hendry Bi~ 34H 5~    29 M      GBR                  125979
    ## # ... with 137,793 more rows
…
